stacja 1 2.231 2.17
domek 0 3.386 4.964
domek 1 3.333 5.072
domek 2 3.641 4.776
domek 3 5.072 5.189
sterowiec 0 2 1
sterowiec 1 3 1
sterowiec 2 4 1
sterowiec 3 5 1
sterowiec 4 6 1
sterowiec 5 2 2
sterowiec 6 3 2
sterowiec 7 4 2
sterowiec 8 5 2
sterowiec 9 6 2
sterowiec 10 2 3
sterowiec 11 3 3
sterowiec 12 4 3
sterowiec 13 5 3
sterowiec 14 6 3
sterowiec 15 2 4
sterowiec 16 3 4
sterowiec 17 4 4
sterowiec 18 5 4
sterowiec 19 6 4
sterowiec 20 2 5
sterowiec 21 3 5
sterowiec 22 4 5
sterowiec 23 5 5
sterowiec 24 6 5
sterowiec 25 2 6
sterowiec 26 3 6
sterowiec 27 4 6
sterowiec 28 5 6
sterowiec 29 6 6
