stacja 1 2.778 9.205
domek 0 7.914 4.017
domek 1 5.986 3.5
domek 2 6.66 5.297
domek 3 5.621 4.283
domek 4 9.246 9.57
sterowiec 0 -1 -1
sterowiec 1 0.25 -1
sterowiec 2 1.5 -1
sterowiec 3 2.75 -1
sterowiec 4 4 -1
sterowiec 5 5.25 -1
sterowiec 6 6.5 -1
sterowiec 7 7.75 -1
sterowiec 8 9 -1
sterowiec 9 10.25 -1
sterowiec 10 11.5 -1
sterowiec 11 -1 0.25
sterowiec 12 0.25 0.25
sterowiec 13 1.5 0.25
sterowiec 14 2.75 0.25
sterowiec 15 4 0.25
sterowiec 16 5.25 0.25
sterowiec 17 6.5 0.25
sterowiec 18 7.75 0.25
sterowiec 19 9 0.25
sterowiec 20 10.25 0.25
sterowiec 21 11.5 0.25
sterowiec 22 -1 1.5
sterowiec 23 0.25 1.5
sterowiec 24 1.5 1.5
sterowiec 25 2.75 1.5
sterowiec 26 4 1.5
sterowiec 27 5.25 1.5
sterowiec 28 6.5 1.5
sterowiec 29 7.75 1.5
sterowiec 30 9 1.5
sterowiec 31 10.25 1.5
sterowiec 32 11.5 1.5
sterowiec 33 -1 2.75
sterowiec 34 0.25 2.75
sterowiec 35 1.5 2.75
sterowiec 36 2.75 2.75
sterowiec 37 4 2.75
sterowiec 38 5.25 2.75
sterowiec 39 6.5 2.75
sterowiec 40 7.75 2.75
sterowiec 41 9 2.75
sterowiec 42 10.25 2.75
sterowiec 43 11.5 2.75
sterowiec 44 -1 4
sterowiec 45 0.25 4
sterowiec 46 1.5 4
sterowiec 47 2.75 4
sterowiec 48 4 4
sterowiec 49 5.25 4
sterowiec 50 6.5 4
sterowiec 51 7.75 4
sterowiec 52 9 4
sterowiec 53 10.25 4
sterowiec 54 11.5 4
sterowiec 55 -1 5.25
sterowiec 56 0.25 5.25
sterowiec 57 1.5 5.25
sterowiec 58 2.75 5.25
sterowiec 59 4 5.25
sterowiec 60 5.25 5.25
sterowiec 61 6.5 5.25
sterowiec 62 7.75 5.25
sterowiec 63 9 5.25
sterowiec 64 10.25 5.25
sterowiec 65 11.5 5.25
sterowiec 66 -1 6.5
sterowiec 67 0.25 6.5
sterowiec 68 1.5 6.5
sterowiec 69 2.75 6.5
sterowiec 70 4 6.5
sterowiec 71 5.25 6.5
sterowiec 72 6.5 6.5
sterowiec 73 7.75 6.5
sterowiec 74 9 6.5
sterowiec 75 10.25 6.5
sterowiec 76 11.5 6.5
sterowiec 77 -1 7.75
sterowiec 78 0.25 7.75
sterowiec 79 1.5 7.75
sterowiec 80 2.75 7.75
sterowiec 81 4 7.75
sterowiec 82 5.25 7.75
sterowiec 83 6.5 7.75
sterowiec 84 7.75 7.75
sterowiec 85 9 7.75
sterowiec 86 10.25 7.75
sterowiec 87 11.5 7.75
sterowiec 88 -1 9
sterowiec 89 0.25 9
sterowiec 90 1.5 9
sterowiec 91 2.75 9
sterowiec 92 4 9
sterowiec 93 5.25 9
sterowiec 94 6.5 9
sterowiec 95 7.75 9
sterowiec 96 9 9
sterowiec 97 10.25 9
sterowiec 98 11.5 9
sterowiec 99 -1 10.25
sterowiec 100 0.25 10.25
sterowiec 101 1.5 10.25
sterowiec 102 2.75 10.25
sterowiec 103 4 10.25
sterowiec 104 5.25 10.25
sterowiec 105 6.5 10.25
sterowiec 106 7.75 10.25
sterowiec 107 9 10.25
sterowiec 108 10.25 10.25
sterowiec 109 11.5 10.25
sterowiec 110 -1 11.5
sterowiec 111 0.25 11.5
sterowiec 112 1.5 11.5
sterowiec 113 2.75 11.5
sterowiec 114 4 11.5
sterowiec 115 5.25 11.5
sterowiec 116 6.5 11.5
sterowiec 117 7.75 11.5
sterowiec 118 9 11.5
sterowiec 119 10.25 11.5
sterowiec 120 11.5 11.5
