stacja 1 2 2.5
domek 0 4.241 2.604
domek 1 3.622 3.409
domek 2 5.445 1.975
domek 3 4.627 4.149
sterowiec 0 2 1
sterowiec 1 3 1
sterowiec 2 4 1
sterowiec 3 5 1
sterowiec 4 6 1
sterowiec 5 0.9 2
sterowiec 6 1.9 2
sterowiec 7 2.9 2
sterowiec 8 3.9 2
sterowiec 9 4.9 2
sterowiec 10 5.9 2
sterowiec 11 0.9 3
sterowiec 12 1.9 3
sterowiec 13 2.9 3
sterowiec 14 3.9 3
sterowiec 15 4.9 3
sterowiec 16 5.9 3
sterowiec 17 0.9 4
sterowiec 18 1.9 4
sterowiec 19 2.9 4
sterowiec 20 3.9 4
sterowiec 21 4.9 4
sterowiec 22 5.9 4
sterowiec 23 0.9 5
sterowiec 24 1.9 5
sterowiec 25 2.9 5
sterowiec 26 3.9 5
sterowiec 27 4.9 5
sterowiec 28 5.9 5
sterowiec 29 0.9 6
sterowiec 30 1.9 6
sterowiec 31 2.9 6
sterowiec 32 3.9 6
sterowiec 33 4.9 6
sterowiec 34 5.9 6
