stacja 1 1.988 5.558
domek 0 4.841 2.676
domek 1 3.77 2.389
domek 2 4.144 3.387
sterowiec 0 -0.1 -0.1
sterowiec 1 0.9 -0.1
sterowiec 2 1.9 -0.1
sterowiec 3 2.9 -0.1
sterowiec 4 3.9 -0.1
sterowiec 5 4.9 -0.1
sterowiec 6 5.9 -0.1
sterowiec 7 6.9 -0.1
sterowiec 8 -0.1 0.9
sterowiec 9 0.9 0.9
sterowiec 10 1.9 0.9
sterowiec 11 2.9 0.9
sterowiec 12 3.9 0.9
sterowiec 13 4.9 0.9
sterowiec 14 5.9 0.9
sterowiec 15 6.9 0.9
sterowiec 16 -0.1 1.9
sterowiec 17 0.9 1.9
sterowiec 18 1.9 1.9
sterowiec 19 2.9 1.9
sterowiec 20 3.9 1.9
sterowiec 21 4.9 1.9
sterowiec 22 5.9 1.9
sterowiec 23 6.9 1.9
sterowiec 24 -0.1 2.9
sterowiec 25 0.9 2.9
sterowiec 26 1.9 2.9
sterowiec 27 2.9 2.9
sterowiec 28 3.9 2.9
sterowiec 29 4.9 2.9
sterowiec 30 5.9 2.9
sterowiec 31 6.9 2.9
sterowiec 32 -0.1 3.9
sterowiec 33 0.9 3.9
sterowiec 34 1.9 3.9
sterowiec 35 2.9 3.9
sterowiec 36 3.9 3.9
sterowiec 37 4.9 3.9
sterowiec 38 5.9 3.9
sterowiec 39 6.9 3.9
sterowiec 40 -0.1 4.9
sterowiec 41 0.9 4.9
sterowiec 42 1.9 4.9
sterowiec 43 2.9 4.9
sterowiec 44 3.9 4.9
sterowiec 45 4.9 4.9
sterowiec 46 5.9 4.9
sterowiec 47 6.9 4.9
sterowiec 48 -0.1 5.9
sterowiec 49 0.9 5.9
sterowiec 50 1.9 5.9
sterowiec 51 2.9 5.9
sterowiec 52 3.9 5.9
sterowiec 53 4.9 5.9
sterowiec 54 5.9 5.9
sterowiec 55 6.9 5.9
sterowiec 56 -0.1 6.9
sterowiec 57 0.9 6.9
sterowiec 58 1.9 6.9
sterowiec 59 2.9 6.9
sterowiec 60 3.9 6.9
sterowiec 61 4.9 6.9
sterowiec 62 5.9 6.9
sterowiec 63 6.9 6.9
