stacja 1 2 2.5
domek 0 4.513 4.462
domek 1 4.561 2.472
sterowiec 0 0.9 -0.1
sterowiec 1 1.9 -0.1
sterowiec 2 2.9 -0.1
sterowiec 3 3.9 -0.1
sterowiec 4 4.9 -0.1
sterowiec 5 5.9 -0.1
sterowiec 6 0.9 0.9
sterowiec 7 1.9 0.9
sterowiec 8 2.9 0.9
sterowiec 9 3.9 0.9
sterowiec 10 4.9 0.9
sterowiec 11 5.9 0.9
sterowiec 12 0.9 1.9
sterowiec 13 1.9 1.9
sterowiec 14 2.9 1.9
sterowiec 15 3.9 1.9
sterowiec 16 4.9 1.9
sterowiec 17 5.9 1.9
sterowiec 18 0.9 2.9
sterowiec 19 1.9 2.9
sterowiec 20 2.9 2.9
sterowiec 21 3.9 2.9
sterowiec 22 4.9 2.9
sterowiec 23 5.9 2.9
sterowiec 24 0.9 3.9
sterowiec 25 1.9 3.9
sterowiec 26 2.9 3.9
sterowiec 27 3.9 3.9
sterowiec 28 4.9 3.9
sterowiec 29 5.9 3.9
sterowiec 30 0.9 4.9
sterowiec 31 1.9 4.9
sterowiec 32 2.9 4.9
sterowiec 33 3.9 4.9
sterowiec 34 4.9 4.9
sterowiec 35 5.9 4.9
sterowiec 36 0.9 5.9
sterowiec 37 1.9 5.9
sterowiec 38 2.9 5.9
sterowiec 39 3.9 5.9
sterowiec 40 4.9 5.9
sterowiec 41 5.9 5.9
