stacja 1 2 2.5
domek 0 4.523 1.443
domek 1 4.906 5.281
domek 2 3.994 4.28
sterowiec 0 0.9 -0.1
sterowiec 1 1.9 -0.1
sterowiec 2 2.9 -0.1
sterowiec 3 3.9 -0.1
sterowiec 4 4.9 -0.1
sterowiec 5 5.9 -0.1
sterowiec 6 6.9 -0.1
sterowiec 7 0.9 0.9
sterowiec 8 1.9 0.9
sterowiec 9 2.9 0.9
sterowiec 10 3.9 0.9
sterowiec 11 4.9 0.9
sterowiec 12 5.9 0.9
sterowiec 13 6.9 0.9
sterowiec 14 0.9 1.9
sterowiec 15 1.9 1.9
sterowiec 16 2.9 1.9
sterowiec 17 3.9 1.9
sterowiec 18 4.9 1.9
sterowiec 19 5.9 1.9
sterowiec 20 6.9 1.9
sterowiec 21 0.9 2.9
sterowiec 22 1.9 2.9
sterowiec 23 2.9 2.9
sterowiec 24 3.9 2.9
sterowiec 25 4.9 2.9
sterowiec 26 5.9 2.9
sterowiec 27 6.9 2.9
sterowiec 28 0.9 3.9
sterowiec 29 1.9 3.9
sterowiec 30 2.9 3.9
sterowiec 31 3.9 3.9
sterowiec 32 4.9 3.9
sterowiec 33 5.9 3.9
sterowiec 34 6.9 3.9
sterowiec 35 0.9 4.9
sterowiec 36 1.9 4.9
sterowiec 37 2.9 4.9
sterowiec 38 3.9 4.9
sterowiec 39 4.9 4.9
sterowiec 40 5.9 4.9
sterowiec 41 6.9 4.9
sterowiec 42 0.9 5.9
sterowiec 43 1.9 5.9
sterowiec 44 2.9 5.9
sterowiec 45 3.9 5.9
sterowiec 46 4.9 5.9
sterowiec 47 5.9 5.9
sterowiec 48 6.9 5.9
sterowiec 49 0.9 6.9
sterowiec 50 1.9 6.9
sterowiec 51 2.9 6.9
sterowiec 52 3.9 6.9
sterowiec 53 4.9 6.9
sterowiec 54 5.9 6.9
sterowiec 55 6.9 6.9
