stacja 1 4.707 4.264
domek 0 2.387 5.467
domek 1 1.282 1.838
domek 2 3.136 6.313
sterowiec 0 1 1
sterowiec 1 2 1
sterowiec 2 3 1
sterowiec 3 4 1
sterowiec 4 5 1
sterowiec 5 -0.1 2
sterowiec 6 0.9 2
sterowiec 7 1.9 2
sterowiec 8 2.9 2
sterowiec 9 3.9 2
sterowiec 10 4.9 2
sterowiec 11 -0.1 3
sterowiec 12 0.9 3
sterowiec 13 1.9 3
sterowiec 14 2.9 3
sterowiec 15 3.9 3
sterowiec 16 4.9 3
sterowiec 17 -0.1 4
sterowiec 18 0.9 4
sterowiec 19 1.9 4
sterowiec 20 2.9 4
sterowiec 21 3.9 4
sterowiec 22 4.9 4
sterowiec 23 -0.1 5
sterowiec 24 0.9 5
sterowiec 25 1.9 5
sterowiec 26 2.9 5
sterowiec 27 3.9 5
sterowiec 28 4.9 5
sterowiec 29 -0.1 6
sterowiec 30 0.9 6
sterowiec 31 1.9 6
sterowiec 32 2.9 6
sterowiec 33 3.9 6
sterowiec 34 4.9 6
sterowiec 35 -0.1 7
sterowiec 36 0.9 7
sterowiec 37 1.9 7
sterowiec 38 2.9 7
sterowiec 39 3.9 7
sterowiec 40 4.9 7
